{
  "silver": [
    {
      "id": 1,
      "text": "ЯКОРНОЕ",
      "value": "anchor",
      "image": "/static/images/chains/silver/anchor.png",
      "price": 1500
    },
    {
      "id": 2,
      "text": "ДВОЙНОЙ РОМБ",
      "value": "doubleRhombus",
      "image": "/static/images/chains/silver/doubleRhombus.png",
      "price": 1600
    },
    {
      "id": 3,
      "text": "ROLO (ITALY)",
      "value": "rolo",
      "image": "/static/images/chains/silver/rolo.png",
      "price": 1700
    }
  ],
  "gilding": [
    {
      "id": 4,
      "text": "ЯКОРНОЕ",
      "value": "anchor",
      "image": "/static/images/chains/gold/anchor.png",
      "price": 5000
    },
    {
      "id": 5,
      "text": "ДВОЙНОЙ РОМБ",
      "value": "doubleRhombus",
      "image": "/static/images/chains/gold/doubleRhombus.png",
      "price": 5100
    },
    {
      "id": 6,
      "text": "ROLO (ITALY)",
      "value": "rolo",
      "image": "/static/images/chains/gold/rolo.png",
      "price": 5200
    }
  ],
  "gold": [
    {
      "id": 4,
      "text": "ЯКОРНОЕ",
      "value": "anchor",
      "image": "/static/images/chains/gold/anchor.png",
      "price": 5000
    },
    {
      "id": 5,
      "text": "ДВОЙНОЙ РОМБ",
      "value": "doubleRhombus",
      "image": "/static/images/chains/gold/doubleRhombus.png",
      "price": 5100
    },
    {
      "id": 6,
      "text": "ROLO (ITALY)",
      "value": "rolo",
      "image": "/static/images/chains/gold/rolo.png",
      "price": 5200
    }
  ],
  "wgold": [
    {
      "id": 7,
      "text": "ЯКОРНОЕ",
      "value": "anchor",
      "image": "/static/images/chains/wgold/anchor.png",
      "price": 5000
    },
    {
      "id": 8,
      "text": "ДВОЙНОЙ РОМБ",
      "value": "doubleRhombus",
      "image": "/static/images/chains/wgold/doubleRhombus.png",
      "price": 5100
    },
    {
      "id": 9,
      "text": "ROLO (ITALY)",
      "value": "rolo",
      "image": "/static/images/chains/wgold/rolo.png",
      "price": 5200
    }
  ],
  "rgold": [
    {
      "id": 10,
      "text": "ЯКОРНОЕ",
      "value": "anchor",
      "image": "/static/images/chains/rgold//anchor.png",
      "price": 5100
    },
    {
      "id": 11,
      "text": "ДВОЙНОЙ РОМБ",
      "value": "doubleRhombus",
      "image": "/static/images/chains/rgold/doubleRhombus.png",
      "price": 5200
    },
    {
      "id": 12,
      "text": "ROLO (ITALY)",
      "value": "rolo",
      "image": "/static/images/chains/rgold/rolo.png",
      "price": 5300
    }
  ]
}